{
	"domain": "air",
	"index": null,
	"name": "@airport/airport-code",
	"sinceVersion": 1,
	"versions": [
		{
			"entities": [
				{
					"columns": [
						{
							"index": 0,
							"isGenerated": false,
							"manyRelationColumnRefs": [],
							"name": "SCHEMA_INDEX",
							"notNull": true,
							"propertyRefs": [
								{
									"index": 0
								}
							],
							"sinceVersion": 1,
							"type": 4
						},
						{
							"index": 1,
							"isGenerated": false,
							"manyRelationColumnRefs": [],
							"name": "TABLE_INDEX",
							"notNull": true,
							"propertyRefs": [
								{
									"index": 1
								}
							],
							"sinceVersion": 1,
							"type": 4
						},
						{
							"index": 2,
							"isGenerated": false,
							"manyRelationColumnRefs": [],
							"name": "COLUMN_INDEX",
							"notNull": true,
							"propertyRefs": [
								{
									"index": 2
								}
							],
							"sinceVersion": 1,
							"type": 4
						},
						{
							"index": 3,
							"isGenerated": false,
							"manyRelationColumnRefs": [],
							"name": "SEQUENCE_INCREMENT_BY",
							"notNull": true,
							"propertyRefs": [
								{
									"index": 3
								}
							],
							"sinceVersion": 1,
							"type": 4
						},
						{
							"index": 4,
							"isGenerated": false,
							"manyRelationColumnRefs": [],
							"name": "CURRENT_VALUE",
							"notNull": true,
							"propertyRefs": [
								{
									"index": 4
								}
							],
							"sinceVersion": 1,
							"type": 4
						}
					],
					"idColumnRefs": [
						{
							"index": 0
						},
						{
							"index": 1
						},
						{
							"index": 2
						}
					],
					"index": 0,
					"isLocal": true,
					"isRepositoryEntity": false,
					"name": "Sequence",
					"properties": [
						{
							"columnRef": {
								"index": 0
							},
							"index": 0,
							"isId": true,
							"name": "schemaIndex",
							"sinceVersion": 1
						},
						{
							"columnRef": {
								"index": 1
							},
							"index": 1,
							"isId": true,
							"name": "tableIndex",
							"sinceVersion": 1
						},
						{
							"columnRef": {
								"index": 2
							},
							"index": 2,
							"isId": true,
							"name": "columnIndex",
							"sinceVersion": 1
						},
						{
							"columnRef": {
								"index": 3
							},
							"index": 3,
							"isId": false,
							"name": "incrementBy",
							"sinceVersion": 1
						},
						{
							"columnRef": {
								"index": 4
							},
							"index": 4,
							"isId": false,
							"name": "currentValue",
							"sinceVersion": 1
						}
					],
					"relations": [],
					"sinceVersion": 1,
					"tableConfig": {
						"name": "SEQUENCES",
						"indexes": []
					}
				},
				{
					"columns": [
						{
							"index": 0,
							"isGenerated": false,
							"manyRelationColumnRefs": [],
							"name": "ID",
							"notNull": true,
							"propertyRefs": [
								{
									"index": 0
								}
							],
							"sinceVersion": 1,
							"type": 4
						}
					],
					"idColumnRefs": [
						{
							"index": 0
						}
					],
					"index": 1,
					"isLocal": true,
					"isRepositoryEntity": false,
					"name": "SystemWideOperationId",
					"properties": [
						{
							"columnRef": {
								"index": 0
							},
							"index": 0,
							"isId": true,
							"name": "id",
							"sinceVersion": 1
						}
					],
					"relations": [],
					"sinceVersion": 1,
					"tableConfig": {
						"name": "SYSTEM_WIDE_OPERATION_IDS",
						"indexes": []
					}
				},
				{
					"columns": [
						{
							"index": 0,
							"isGenerated": true,
							"manyRelationColumnRefs": [],
							"name": "ID",
							"notNull": false,
							"propertyRefs": [
								{
									"index": 0
								}
							],
							"sinceVersion": 1,
							"type": 4
						},
						{
							"index": 1,
							"isGenerated": false,
							"manyRelationColumnRefs": [],
							"name": "CREATE_TIMESTAMP",
							"notNull": true,
							"propertyRefs": [
								{
									"index": 1
								}
							],
							"sinceVersion": 1,
							"type": 4
						},
						{
							"index": 2,
							"isGenerated": false,
							"manyRelationColumnRefs": [],
							"name": "RANDOM_NUMBER",
							"notNull": true,
							"propertyRefs": [
								{
									"index": 2
								}
							],
							"sinceVersion": 1,
							"type": 4
						}
					],
					"idColumnRefs": [
						{
							"index": 0
						}
					],
					"index": 2,
					"isLocal": true,
					"isRepositoryEntity": false,
					"name": "TerminalRun",
					"properties": [
						{
							"columnRef": {
								"index": 0
							},
							"index": 0,
							"isId": true,
							"name": "id",
							"sinceVersion": 1
						},
						{
							"columnRef": {
								"index": 1
							},
							"index": 1,
							"isId": false,
							"name": "createTimestamp",
							"sinceVersion": 1
						},
						{
							"columnRef": {
								"index": 2
							},
							"index": 2,
							"isId": false,
							"name": "randomNumber",
							"sinceVersion": 1
						}
					],
					"relations": [],
					"sinceVersion": 1,
					"tableConfig": {
						"name": "TERMINAL_RUNS",
						"indexes": []
					}
				}
			],
			"integerVersion": 1,
			"referencedSchemas": [],
			"versionString": "1.0.0"
		}
	]
}